region:WorldLarge
percentageDemand:1.0
service:ABX
numOfPorts:11
ports:HKHKG,TWKHH,CNYTN,SGSIN,EGSUZ,NLRTM,DEHAM,GBFXT,BEANR,EGPSD,HKHKG
timeWindowStart:0.0,35.12,78.53,19.94,18.38,66.51,118.57,10.75,54.04,105.63,0.0
timeWindowEnd:15.0,58.12,102.53,51.94,35.38,100.51,154.57,45.75,78.04,122.63,15.0
fixedSailingCost:0 42553.8 2009.25 180028.8 823475.25 1214390.7 1246602.15 1208912.85 1214010.0 800337.15 0,42553.8 0 43167.15 207016.2 841304.7 1241378.1 1273610.7 1235900.25 1240997.4 827345.7 42553.8,613.35 43167.15 0 180642.15 821804.4 1215004.05 1247236.65 1209526.2 1214623.35 800971.65 613.35,180028.8 207016.2 180642.15 0 639660.6 1034361.9 1066573.35 1028884.05 1033981.2 620308.35 180028.8,817701.3 839718.45 820239.3 635028.75 0 421159.95 505506.15 412551.9 422323.2 507.6 817701.3,1214390.7 1241378.1 1215004.05 1034361.9 414899.55 0 38196.9 15058.8 15058.8 414032.4 1214390.7,1246602.15 1273610.7 1247236.65 1066573.35 499351.5 38196.9 0 51140.7 48031.65 446265.0 1246602.15,1208912.85 1235900.25 1209526.2 1028884.05 406799.1 15058.8 51140.7 0 17533.35 408575.7 1208912.85,1214010.0 1240997.4 1214623.35 1033981.2 410754.15 15058.8 48031.65 17533.35 0 413672.85 1214010.0,800337.15 827345.7 800971.65 620308.35 507.6 414032.4 446265.0 408575.7 413672.85 0 800337.15,0 42553.8 2009.25 180028.8 823475.25 1214390.7 1246602.15 1208912.85 1214010.0 800337.15 0
sailingTime:0 20.12 0.95 85.12 389.35 574.18 589.41 571.59 574.0 378.41 0,20.12 0 20.41 97.88 397.78 586.94 602.18 584.35 586.76 391.18 20.12,0.29 20.41 0 85.41 388.56 574.47 589.71 571.88 574.29 378.71 0.29,85.12 97.88 85.41 0 302.44 489.06 504.29 486.47 488.88 293.29 85.12,386.62 397.03 387.82 300.25 0 199.13 239.01 195.06 199.68 0.24 386.62,574.18 586.94 574.47 489.06 196.17 0 18.06 7.12 7.12 195.76 574.18,589.41 602.18 589.71 504.29 236.1 18.06 0 24.18 22.71 211.0 589.41,571.59 584.35 571.88 486.47 192.34 7.12 24.18 0 8.29 193.18 571.59,574.0 586.76 574.29 488.88 194.21 7.12 22.71 8.29 0 195.59 574.0,378.41 391.18 378.71 293.29 0.24 195.76 211.0 193.18 195.59 0 378.41,0 20.12 0.95 85.12 389.35 574.18 589.41 571.59 574.0 378.41 0
numOfDemands:31
demands:d1,d2,d3,d4,d5,d6,d7,d8,d9,d10,d11,d12,d13,d14,d15,d16,d17,d18,d19,d20,d21,d22,d23,d24,d25,d26,d27,d28,d29,d30,d31
demandSource:9,9,3,3,7,7,10,10,5,5,5,5,5,8,8,1,1,6,6,6,6,6,6,4,4,4,4,4,4,2,2
demandDestination:5,4,5,6,5,4,6,4,9,8,1,6,4,5,4,5,6,3,10,5,1,4,2,9,7,10,5,8,6,5,6
demandAmount:25,2,80,3609,2,191,140,77,2,18,18,8,13,26,192,107,1035,93,43,56,707,1602,154,6,433,271,58,1022,3973,28,433
demandRevenue:980,942.00,2880.65934066,3211.09,860,963.77,736.35,722.38,990,849.090909091,1013.75,920.0,1107.27272727,1020,1039.84,2836.88172043,2788.06,993.57,818.86,844.411764706,959.34,1026.44,915.03,3312.85714286,3034.98,3252.47,2816.61538462,3027.10,3036.50,2836.66666667,2742.90
demandTransitTime:216,696,1560,720,672,792,168,576,552,240,816,312,504,360,816,720,768,792,312,312,864,696,912,840,888,480,552,672,672,720,840
capacity:15000
charterCost:385000.0
random:0
region_file:Sample_Data/lss_instances/src/Demand_WorldLarge.csv
region_fleet_file:Sample_Data/lss_instances/src/fleet_WorldLarge.csv
destination_path:Sample_Data/lss_instances/industrial
prefix:lss
general_fleet_file:Sample_Data/fleet_data.csv
distance_matrix:Sample_Data/dist_dense.csv
additional_distance_matrix:Sample_Data/distances.csv
use_real_world:True
use_additional_demand:False
real_world_source:Sample_Data/lss_instances/industrial/src/nobutterfly/tight/ne2.csv
additional_demand_file:Sample_Data/generated_demands.csv
fix_fixedCostPerHour:400
fix_timeWindowLength:20
flag_subsetOfDemands:True
vesselClass:Super_panamax
designSpeed:17.0
designConsumption:126.9
demand_variation:h
transittime_variation:('nbtight', 1.0)
shuffled_time_windows:False
fix_variation:[1.0]
file:ne2.csv
fix_numberOfInstancesPerScenario:1
seed:ne2.csv